^C:\USERS\LESTER\SOURCE\REPOS\FINALS\FINALS\MOVES.CPP|C:\USERS\LESTER\SOURCE\REPOS\FINALS\FINALS\POKEMON.CPP|C:\USERS\LESTER\SOURCE\REPOS\FINALS\FINALS\SOURCE.CPP|C:\USERS\LESTER\SOURCE\REPOS\FINALS\FINALS\TYPES.CPP
C:\USERS\LESTER\SOURCE\REPOS\FINALS\FINALS\X64\DEBUG\VC142.PDB
C:\USERS\LESTER\SOURCE\REPOS\FINALS\FINALS\X64\DEBUG\VC142.IDB
C:\USERS\LESTER\SOURCE\REPOS\FINALS\FINALS\X64\DEBUG\TYPES.OBJ
C:\USERS\LESTER\SOURCE\REPOS\FINALS\FINALS\X64\DEBUG\SOURCE.OBJ
C:\USERS\LESTER\SOURCE\REPOS\FINALS\FINALS\X64\DEBUG\POKEMON.OBJ
C:\USERS\LESTER\SOURCE\REPOS\FINALS\FINALS\X64\DEBUG\MOVES.OBJ
^C:\USERS\LESTER\SOURCE\REPOS\FINALS\FINALS\MAP.CPP|C:\USERS\LESTER\SOURCE\REPOS\FINALS\FINALS\SOURCE.CPP|C:\USERS\LESTER\SOURCE\REPOS\FINALS\FINALS\TRAINER.CPP|C:\USERS\LESTER\SOURCE\REPOS\FINALS\FINALS\TYPES.CPP
C:\USERS\LESTER\SOURCE\REPOS\FINALS\FINALS\X64\DEBUG\VC142.PDB
C:\USERS\LESTER\SOURCE\REPOS\FINALS\FINALS\X64\DEBUG\VC142.IDB
C:\USERS\LESTER\SOURCE\REPOS\FINALS\FINALS\X64\DEBUG\TYPES.OBJ
C:\USERS\LESTER\SOURCE\REPOS\FINALS\FINALS\X64\DEBUG\MAP.OBJ
^C:\USERS\LESTER\SOURCE\REPOS\FINALS\FINALS\SOURCE.CPP|C:\USERS\LESTER\SOURCE\REPOS\FINALS\FINALS\TRAINER.CPP|C:\USERS\LESTER\SOURCE\REPOS\FINALS\FINALS\TYPES.CPP
C:\USERS\LESTER\SOURCE\REPOS\FINALS\FINALS\X64\DEBUG\VC142.PDB
C:\USERS\LESTER\SOURCE\REPOS\FINALS\FINALS\X64\DEBUG\VC142.IDB
C:\USERS\LESTER\SOURCE\REPOS\FINALS\FINALS\X64\DEBUG\TYPES.OBJ
C:\USERS\LESTER\SOURCE\REPOS\FINALS\FINALS\X64\DEBUG\TRAINER.OBJ
C:\USERS\LESTER\SOURCE\REPOS\FINALS\FINALS\X64\DEBUG\SOURCE.OBJ
^C:\USERS\LESTER\SOURCE\REPOS\FINALS\FINALS\MOVES.CPP|C:\USERS\LESTER\SOURCE\REPOS\FINALS\FINALS\POKEMON.CPP|C:\USERS\LESTER\SOURCE\REPOS\FINALS\FINALS\SOURCE.CPP
C:\USERS\LESTER\SOURCE\REPOS\FINALS\FINALS\X64\DEBUG\VC142.PDB
C:\USERS\LESTER\SOURCE\REPOS\FINALS\FINALS\X64\DEBUG\VC142.IDB
C:\USERS\LESTER\SOURCE\REPOS\FINALS\FINALS\X64\DEBUG\POKEMON.OBJ
C:\USERS\LESTER\SOURCE\REPOS\FINALS\FINALS\X64\DEBUG\MOVES.OBJ
^C:\USERS\LESTER\SOURCE\REPOS\FINALS\FINALS\MAP.CPP|C:\USERS\LESTER\SOURCE\REPOS\FINALS\FINALS\SOURCE.CPP|C:\USERS\LESTER\SOURCE\REPOS\FINALS\FINALS\TRAINER.CPP
C:\USERS\LESTER\SOURCE\REPOS\FINALS\FINALS\X64\DEBUG\VC142.PDB
C:\USERS\LESTER\SOURCE\REPOS\FINALS\FINALS\X64\DEBUG\VC142.IDB
C:\USERS\LESTER\SOURCE\REPOS\FINALS\FINALS\X64\DEBUG\TRAINER.OBJ
C:\USERS\LESTER\SOURCE\REPOS\FINALS\FINALS\X64\DEBUG\SOURCE.OBJ
C:\USERS\LESTER\SOURCE\REPOS\FINALS\FINALS\X64\DEBUG\MAP.OBJ
^C:\USERS\LESTER\SOURCE\REPOS\FINALS\FINALS\POKEMON.CPP|C:\USERS\LESTER\SOURCE\REPOS\FINALS\FINALS\SOURCE.CPP|C:\USERS\LESTER\SOURCE\REPOS\FINALS\FINALS\TYPES.CPP
C:\USERS\LESTER\SOURCE\REPOS\FINALS\FINALS\X64\DEBUG\VC142.PDB
C:\USERS\LESTER\SOURCE\REPOS\FINALS\FINALS\X64\DEBUG\VC142.IDB
C:\USERS\LESTER\SOURCE\REPOS\FINALS\FINALS\X64\DEBUG\TYPES.OBJ
C:\USERS\LESTER\SOURCE\REPOS\FINALS\FINALS\X64\DEBUG\SOURCE.OBJ
C:\USERS\LESTER\SOURCE\REPOS\FINALS\FINALS\X64\DEBUG\POKEMON.OBJ
^C:\USERS\LESTER\SOURCE\REPOS\FINALS\FINALS\MAP.CPP|C:\USERS\LESTER\SOURCE\REPOS\FINALS\FINALS\MOVES.CPP|C:\USERS\LESTER\SOURCE\REPOS\FINALS\FINALS\SOURCE.CPP|C:\USERS\LESTER\SOURCE\REPOS\FINALS\FINALS\TRAINER.CPP
C:\USERS\LESTER\SOURCE\REPOS\FINALS\FINALS\X64\DEBUG\VC142.PDB
C:\USERS\LESTER\SOURCE\REPOS\FINALS\FINALS\X64\DEBUG\VC142.IDB
C:\USERS\LESTER\SOURCE\REPOS\FINALS\FINALS\X64\DEBUG\TRAINER.OBJ
C:\USERS\LESTER\SOURCE\REPOS\FINALS\FINALS\X64\DEBUG\MOVES.OBJ
C:\USERS\LESTER\SOURCE\REPOS\FINALS\FINALS\X64\DEBUG\MAP.OBJ
^C:\USERS\LESTER\SOURCE\REPOS\FINALS\FINALS\MOVES.CPP|C:\USERS\LESTER\SOURCE\REPOS\FINALS\FINALS\POKEMON.CPP
C:\USERS\LESTER\SOURCE\REPOS\FINALS\FINALS\X64\DEBUG\VC142.PDB
C:\USERS\LESTER\SOURCE\REPOS\FINALS\FINALS\X64\DEBUG\VC142.IDB
C:\USERS\LESTER\SOURCE\REPOS\FINALS\FINALS\X64\DEBUG\POKEMON.OBJ
C:\USERS\LESTER\SOURCE\REPOS\FINALS\FINALS\X64\DEBUG\MOVES.OBJ
^C:\USERS\LESTER\SOURCE\REPOS\FINALS\FINALS\POKEMON.CPP|C:\USERS\LESTER\SOURCE\REPOS\FINALS\FINALS\SOURCE.CPP|C:\USERS\LESTER\SOURCE\REPOS\FINALS\FINALS\TRAINER.CPP
C:\USERS\LESTER\SOURCE\REPOS\FINALS\FINALS\X64\DEBUG\VC142.PDB
C:\USERS\LESTER\SOURCE\REPOS\FINALS\FINALS\X64\DEBUG\VC142.IDB
C:\USERS\LESTER\SOURCE\REPOS\FINALS\FINALS\X64\DEBUG\SOURCE.OBJ
C:\USERS\LESTER\SOURCE\REPOS\FINALS\FINALS\X64\DEBUG\POKEMON.OBJ
^C:\USERS\LESTER\SOURCE\REPOS\FINALS\FINALS\POKEMON.CPP|C:\USERS\LESTER\SOURCE\REPOS\FINALS\FINALS\TRAINER.CPP
C:\USERS\LESTER\SOURCE\REPOS\FINALS\FINALS\X64\DEBUG\VC142.PDB
C:\USERS\LESTER\SOURCE\REPOS\FINALS\FINALS\X64\DEBUG\VC142.IDB
C:\USERS\LESTER\SOURCE\REPOS\FINALS\FINALS\X64\DEBUG\POKEMON.OBJ
^C:\USERS\LESTER\SOURCE\REPOS\FINALS\FINALS\MOVES.CPP|C:\USERS\LESTER\SOURCE\REPOS\FINALS\FINALS\POKEMON.CPP|C:\USERS\LESTER\SOURCE\REPOS\FINALS\FINALS\SOURCE.CPP|C:\USERS\LESTER\SOURCE\REPOS\FINALS\FINALS\TRAINER.CPP
C:\USERS\LESTER\SOURCE\REPOS\FINALS\FINALS\X64\DEBUG\VC142.PDB
C:\USERS\LESTER\SOURCE\REPOS\FINALS\FINALS\X64\DEBUG\VC142.IDB
C:\USERS\LESTER\SOURCE\REPOS\FINALS\FINALS\X64\DEBUG\TRAINER.OBJ
C:\USERS\LESTER\SOURCE\REPOS\FINALS\FINALS\X64\DEBUG\SOURCE.OBJ
C:\USERS\LESTER\SOURCE\REPOS\FINALS\FINALS\X64\DEBUG\POKEMON.OBJ
C:\USERS\LESTER\SOURCE\REPOS\FINALS\FINALS\X64\DEBUG\MOVES.OBJ
^C:\USERS\LESTER\SOURCE\REPOS\FINALS\FINALS\MOVES.CPP|C:\USERS\LESTER\SOURCE\REPOS\FINALS\FINALS\SOURCE.CPP|C:\USERS\LESTER\SOURCE\REPOS\FINALS\FINALS\TRAINER.CPP
C:\USERS\LESTER\SOURCE\REPOS\FINALS\FINALS\X64\DEBUG\VC142.PDB
C:\USERS\LESTER\SOURCE\REPOS\FINALS\FINALS\X64\DEBUG\VC142.IDB
C:\USERS\LESTER\SOURCE\REPOS\FINALS\FINALS\X64\DEBUG\TRAINER.OBJ
C:\USERS\LESTER\SOURCE\REPOS\FINALS\FINALS\X64\DEBUG\SOURCE.OBJ
C:\USERS\LESTER\SOURCE\REPOS\FINALS\FINALS\X64\DEBUG\MOVES.OBJ
^C:\USERS\LESTER\SOURCE\REPOS\FINALS\FINALS\MAP.CPP|C:\USERS\LESTER\SOURCE\REPOS\FINALS\FINALS\MOVES.CPP|C:\USERS\LESTER\SOURCE\REPOS\FINALS\FINALS\POKEMON.CPP|C:\USERS\LESTER\SOURCE\REPOS\FINALS\FINALS\SOURCE.CPP|C:\USERS\LESTER\SOURCE\REPOS\FINALS\FINALS\TRAINER.CPP|C:\USERS\LESTER\SOURCE\REPOS\FINALS\FINALS\TYPES.CPP
C:\USERS\LESTER\SOURCE\REPOS\FINALS\FINALS\X64\DEBUG\VC142.PDB
C:\USERS\LESTER\SOURCE\REPOS\FINALS\FINALS\X64\DEBUG\VC142.IDB
C:\USERS\LESTER\SOURCE\REPOS\FINALS\FINALS\X64\DEBUG\TYPES.OBJ
C:\USERS\LESTER\SOURCE\REPOS\FINALS\FINALS\X64\DEBUG\TRAINER.OBJ
C:\USERS\LESTER\SOURCE\REPOS\FINALS\FINALS\X64\DEBUG\SOURCE.OBJ
C:\USERS\LESTER\SOURCE\REPOS\FINALS\FINALS\X64\DEBUG\POKEMON.OBJ
C:\USERS\LESTER\SOURCE\REPOS\FINALS\FINALS\X64\DEBUG\MOVES.OBJ
C:\USERS\LESTER\SOURCE\REPOS\FINALS\FINALS\X64\DEBUG\MAP.OBJ
^C:\USERS\LESTER\SOURCE\REPOS\FINALS\FINALS\MAP.CPP
C:\USERS\LESTER\SOURCE\REPOS\FINALS\FINALS\X64\DEBUG\VC142.PDB
^C:\USERS\LESTER\SOURCE\REPOS\FINALS\FINALS\POKEMON.CPP|C:\USERS\LESTER\SOURCE\REPOS\FINALS\FINALS\SOURCE.CPP
C:\USERS\LESTER\SOURCE\REPOS\FINALS\FINALS\X64\DEBUG\VC142.PDB
C:\USERS\LESTER\SOURCE\REPOS\FINALS\FINALS\X64\DEBUG\VC142.IDB
C:\USERS\LESTER\SOURCE\REPOS\FINALS\FINALS\X64\DEBUG\SOURCE.OBJ
C:\USERS\LESTER\SOURCE\REPOS\FINALS\FINALS\X64\DEBUG\POKEMON.OBJ
^C:\USERS\LESTER\SOURCE\REPOS\FINALS\FINALS\MOVES.CPP|C:\USERS\LESTER\SOURCE\REPOS\FINALS\FINALS\TYPES.CPP
C:\USERS\LESTER\SOURCE\REPOS\FINALS\FINALS\X64\DEBUG\VC142.PDB
C:\USERS\LESTER\SOURCE\REPOS\FINALS\FINALS\X64\DEBUG\VC142.IDB
C:\USERS\LESTER\SOURCE\REPOS\FINALS\FINALS\X64\DEBUG\TYPES.OBJ
C:\USERS\LESTER\SOURCE\REPOS\FINALS\FINALS\X64\DEBUG\MOVES.OBJ
^C:\USERS\LESTER\SOURCE\REPOS\FINALS\FINALS\SOURCE.CPP|C:\USERS\LESTER\SOURCE\REPOS\FINALS\FINALS\TRAINER.CPP
C:\USERS\LESTER\SOURCE\REPOS\FINALS\FINALS\X64\DEBUG\VC142.PDB
C:\USERS\LESTER\SOURCE\REPOS\FINALS\FINALS\X64\DEBUG\VC142.IDB
C:\USERS\LESTER\SOURCE\REPOS\FINALS\FINALS\X64\DEBUG\TRAINER.OBJ
C:\USERS\LESTER\SOURCE\REPOS\FINALS\FINALS\X64\DEBUG\SOURCE.OBJ
^C:\USERS\LESTER\SOURCE\REPOS\FINALS\FINALS\MOVES.CPP|C:\USERS\LESTER\SOURCE\REPOS\FINALS\FINALS\SOURCE.CPP
C:\USERS\LESTER\SOURCE\REPOS\FINALS\FINALS\X64\DEBUG\VC142.PDB
C:\USERS\LESTER\SOURCE\REPOS\FINALS\FINALS\X64\DEBUG\VC142.IDB
C:\USERS\LESTER\SOURCE\REPOS\FINALS\FINALS\X64\DEBUG\SOURCE.OBJ
C:\USERS\LESTER\SOURCE\REPOS\FINALS\FINALS\X64\DEBUG\MOVES.OBJ
^C:\USERS\LESTER\SOURCE\REPOS\FINALS\FINALS\MOVES.CPP|C:\USERS\LESTER\SOURCE\REPOS\FINALS\FINALS\POKEMON.CPP|C:\USERS\LESTER\SOURCE\REPOS\FINALS\FINALS\SOURCE.CPP|C:\USERS\LESTER\SOURCE\REPOS\FINALS\FINALS\TRAINER.CPP|C:\USERS\LESTER\SOURCE\REPOS\FINALS\FINALS\TYPES.CPP
C:\USERS\LESTER\SOURCE\REPOS\FINALS\FINALS\X64\DEBUG\VC142.PDB
C:\USERS\LESTER\SOURCE\REPOS\FINALS\FINALS\X64\DEBUG\VC142.IDB
C:\USERS\LESTER\SOURCE\REPOS\FINALS\FINALS\X64\DEBUG\TYPES.OBJ
C:\USERS\LESTER\SOURCE\REPOS\FINALS\FINALS\X64\DEBUG\TRAINER.OBJ
C:\USERS\LESTER\SOURCE\REPOS\FINALS\FINALS\X64\DEBUG\SOURCE.OBJ
C:\USERS\LESTER\SOURCE\REPOS\FINALS\FINALS\X64\DEBUG\POKEMON.OBJ
C:\USERS\LESTER\SOURCE\REPOS\FINALS\FINALS\X64\DEBUG\MOVES.OBJ
^C:\USERS\LESTER\SOURCE\REPOS\FINALS\FINALS\POKEMON.CPP
C:\USERS\LESTER\SOURCE\REPOS\FINALS\FINALS\X64\DEBUG\VC142.PDB
^C:\USERS\LESTER\SOURCE\REPOS\FINALS\FINALS\SOURCE.CPP
C:\USERS\LESTER\SOURCE\REPOS\FINALS\FINALS\X64\DEBUG\VC142.PDB
^C:\USERS\LESTER\SOURCE\REPOS\FINALS\FINALS\TRAINER.CPP
C:\USERS\LESTER\SOURCE\REPOS\FINALS\FINALS\X64\DEBUG\VC142.PDB
^C:\USERS\LESTER\SOURCE\REPOS\FINALS\FINALS\TYPES.CPP
C:\USERS\LESTER\SOURCE\REPOS\FINALS\FINALS\X64\DEBUG\VC142.PDB
^C:\USERS\LESTER\SOURCE\REPOS\FINALS\FINALS\MOVES.CPP
C:\USERS\LESTER\SOURCE\REPOS\FINALS\FINALS\X64\DEBUG\VC142.PDB
C:\USERS\LESTER\SOURCE\REPOS\FINALS\FINALS\X64\DEBUG\VC142.IDB
C:\USERS\LESTER\SOURCE\REPOS\FINALS\FINALS\X64\DEBUG\MOVES.OBJ
^C:\USERS\LESTER\DOCUMENTS\3T1819-DONG-11815367\FINALS\FINALS\MAP.CPP|C:\USERS\LESTER\DOCUMENTS\3T1819-DONG-11815367\FINALS\FINALS\MOVES.CPP|C:\USERS\LESTER\DOCUMENTS\3T1819-DONG-11815367\FINALS\FINALS\POKEMON.CPP|C:\USERS\LESTER\DOCUMENTS\3T1819-DONG-11815367\FINALS\FINALS\SOURCE.CPP|C:\USERS\LESTER\DOCUMENTS\3T1819-DONG-11815367\FINALS\FINALS\TRAINER.CPP|C:\USERS\LESTER\DOCUMENTS\3T1819-DONG-11815367\FINALS\FINALS\TYPES.CPP
C:\USERS\LESTER\DOCUMENTS\3T1819-DONG-11815367\FINALS\FINALS\X64\DEBUG\VC142.PDB
C:\USERS\LESTER\DOCUMENTS\3T1819-DONG-11815367\FINALS\FINALS\X64\DEBUG\VC142.IDB
C:\USERS\LESTER\DOCUMENTS\3T1819-DONG-11815367\FINALS\FINALS\X64\DEBUG\TYPES.OBJ
C:\USERS\LESTER\DOCUMENTS\3T1819-DONG-11815367\FINALS\FINALS\X64\DEBUG\TRAINER.OBJ
C:\USERS\LESTER\DOCUMENTS\3T1819-DONG-11815367\FINALS\FINALS\X64\DEBUG\SOURCE.OBJ
C:\USERS\LESTER\DOCUMENTS\3T1819-DONG-11815367\FINALS\FINALS\X64\DEBUG\POKEMON.OBJ
C:\USERS\LESTER\DOCUMENTS\3T1819-DONG-11815367\FINALS\FINALS\X64\DEBUG\MOVES.OBJ
C:\USERS\LESTER\DOCUMENTS\3T1819-DONG-11815367\FINALS\FINALS\X64\DEBUG\MAP.OBJ
^C:\USERS\LESTER\DOCUMENTS\3T1819-DONG-11815367\FINALS\FINALS\MAP.CPP
C:\USERS\LESTER\DOCUMENTS\3T1819-DONG-11815367\FINALS\FINALS\X64\DEBUG\VC142.PDB
^C:\USERS\LESTER\DOCUMENTS\3T1819-DONG-11815367\FINALS\FINALS\MOVES.CPP
C:\USERS\LESTER\DOCUMENTS\3T1819-DONG-11815367\FINALS\FINALS\X64\DEBUG\VC142.PDB
^C:\USERS\LESTER\DOCUMENTS\3T1819-DONG-11815367\FINALS\FINALS\POKEMON.CPP
C:\USERS\LESTER\DOCUMENTS\3T1819-DONG-11815367\FINALS\FINALS\X64\DEBUG\VC142.PDB
^C:\USERS\LESTER\DOCUMENTS\3T1819-DONG-11815367\FINALS\FINALS\SOURCE.CPP
C:\USERS\LESTER\DOCUMENTS\3T1819-DONG-11815367\FINALS\FINALS\X64\DEBUG\VC142.PDB
^C:\USERS\LESTER\DOCUMENTS\3T1819-DONG-11815367\FINALS\FINALS\TRAINER.CPP
C:\USERS\LESTER\DOCUMENTS\3T1819-DONG-11815367\FINALS\FINALS\X64\DEBUG\VC142.PDB
^C:\USERS\LESTER\DOCUMENTS\3T1819-DONG-11815367\FINALS\FINALS\TYPES.CPP
C:\USERS\LESTER\DOCUMENTS\3T1819-DONG-11815367\FINALS\FINALS\X64\DEBUG\VC142.PDB
